# This file uses centimeters as units for non-parametric coordinates.

mtllib Rock4.mtl
g default
v 0.134784 0.000000 -0.226587
v -0.134784 0.000000 -0.226587
v -0.269568 0.000000 0.000000
v -0.134784 0.000000 0.226587
v 0.134784 0.000000 0.226587
v 0.269568 0.000000 0.000000
v 0.152801 0.543403 -0.082239
v 0.002303 0.539753 -0.082986
v -0.023691 0.568564 -0.000286
v 0.039463 0.548183 0.089027
v 0.119403 0.529428 0.060849
v 0.198151 0.532735 0.000465
v 0.000000 0.000000 0.000000
v 0.094980 0.557561 0.000086
v 0.175554 0.482604 -0.218800
v -0.082182 0.499561 -0.257200
v -0.265231 0.493896 0.000937
v -0.098037 0.502239 0.263133
v 0.223756 0.479506 0.206818
v 0.292954 0.467059 -0.001391
v 0.150623 0.396343 -0.324581
v -0.126037 0.410586 -0.417630
v -0.364865 0.402426 -0.021128
v -0.102787 0.422058 0.409367
v 0.147333 0.400238 0.307088
v 0.336436 0.380494 -0.010066
v 0.222627 0.294552 -0.344012
v -0.150251 0.294391 -0.390243
v -0.428256 0.318430 0.068590
v -0.134169 0.293963 0.414505
v 0.220175 0.287643 0.345951
v 0.466365 0.260830 0.012021
v 0.265691 0.182357 -0.375500
v -0.120839 0.185842 -0.451087
v -0.384040 0.219681 -0.028520
v -0.107508 0.182128 0.452573
v 0.319605 0.182264 0.370685
v 0.432476 0.167619 0.005283
v 0.279818 0.083267 -0.367435
v -0.189446 0.084621 -0.381621
v -0.441567 0.055216 0.000787
v -0.197515 0.077007 0.420016
v 0.236934 0.084778 0.367554
v 0.452921 0.093494 0.000008
vt 0.375000 0.659906
vt 0.416667 0.659906
vt 0.416667 0.688440
vt 0.375000 0.688440
vt 0.458333 0.659906
vt 0.458333 0.688440
vt 0.500000 0.659906
vt 0.500000 0.688440
vt 0.541667 0.659906
vt 0.541667 0.688440
vt 0.583333 0.659906
vt 0.583333 0.688440
vt 0.625000 0.659906
vt 0.625000 0.688440
vt 0.421875 0.020934
vt 0.578125 0.020934
vt 0.500000 0.150000
vt 0.343750 0.156250
vt 0.421875 0.291566
vt 0.578125 0.291566
vt 0.656250 0.156250
vt 0.578125 0.979066
vt 0.421875 0.979066
vt 0.500000 0.837500
vt 0.343750 0.843750
vt 0.421875 0.708434
vt 0.578125 0.708434
vt 0.656250 0.843750
vt 0.375000 0.596616
vt 0.416667 0.596616
vt 0.458333 0.596616
vt 0.500000 0.596616
vt 0.541667 0.596616
vt 0.583333 0.596616
vt 0.625000 0.596616
vt 0.375000 0.519586
vt 0.416667 0.519586
vt 0.458333 0.519586
vt 0.500000 0.519586
vt 0.541667 0.519586
vt 0.583333 0.519586
vt 0.625000 0.519586
vt 0.375000 0.443518
vt 0.416667 0.443518
vt 0.458333 0.443518
vt 0.500000 0.443518
vt 0.541667 0.443518
vt 0.583333 0.443518
vt 0.625000 0.443518
vt 0.375000 0.375669
vt 0.416667 0.375669
vt 0.458333 0.375669
vt 0.500000 0.375669
vt 0.541667 0.375669
vt 0.583333 0.375669
vt 0.625000 0.375669
vt 0.375000 0.312500
vt 0.416667 0.312500
vt 0.458333 0.312500
vt 0.500000 0.312500
vt 0.541667 0.312500
vt 0.583333 0.312500
vt 0.625000 0.312500
vn 0.450192 0.693455 -0.562537
vn -0.254232 0.839494 -0.480225
vn -0.071972 0.984350 -0.160858
vn 0.161687 0.971453 -0.173598
vn -0.254232 0.839494 -0.480225
vn -0.591859 0.805979 0.010045
vn -0.166764 0.985902 0.013687
vn -0.071972 0.984350 -0.160858
vn -0.591859 0.805979 0.010045
vn -0.293727 0.800423 0.522539
vn -0.038806 0.982571 0.181791
vn -0.166764 0.985902 0.013687
vn -0.293727 0.800423 0.522539
vn 0.556524 0.541143 0.630433
vn 0.158465 0.968671 0.191219
vn -0.038806 0.982571 0.181791
vn 0.556524 0.541143 0.630433
vn 0.963277 0.268441 -0.006158
vn 0.275650 0.961253 -0.002958
vn 0.158465 0.968671 0.191219
vn 0.963277 0.268441 -0.006158
vn 0.450192 0.693455 -0.562537
vn 0.161687 0.971453 -0.173598
vn 0.275650 0.961253 -0.002958
vn -0.183603 -0.920064 -0.346081
vn 0.198102 -0.918942 -0.341030
vn 0.000000 -1.000000 0.000000
vn -0.385463 -0.922723 -0.001089
vn -0.183603 -0.920064 -0.346081
vn 0.000000 -1.000000 0.000000
vn -0.186411 -0.921330 0.341178
vn -0.385463 -0.922723 -0.001089
vn 0.000000 -1.000000 0.000000
vn 0.206087 -0.917274 0.340787
vn -0.186411 -0.921330 0.341178
vn 0.000000 -1.000000 0.000000
vn 0.408843 -0.912579 0.006840
vn 0.206087 -0.917274 0.340787
vn 0.000000 -1.000000 0.000000
vn 0.198102 -0.918942 -0.341030
vn 0.408843 -0.912579 0.006840
vn 0.000000 -1.000000 0.000000
vn 0.161687 0.971453 -0.173598
vn -0.071972 0.984350 -0.160858
vn 0.082501 0.996471 -0.015440
vn -0.071972 0.984350 -0.160858
vn -0.166764 0.985902 0.013687
vn 0.082501 0.996471 -0.015440
vn -0.166764 0.985902 0.013687
vn -0.038806 0.982571 0.181791
vn 0.082501 0.996471 -0.015440
vn -0.038806 0.982571 0.181791
vn 0.158465 0.968671 0.191219
vn 0.082501 0.996471 -0.015440
vn 0.158465 0.968671 0.191219
vn 0.275650 0.961253 -0.002958
vn 0.082501 0.996471 -0.015440
vn 0.275650 0.961253 -0.002958
vn 0.161687 0.971453 -0.173598
vn 0.082501 0.996471 -0.015440
vn 0.496785 0.468571 -0.730511
vn -0.426567 0.488757 -0.761024
vn -0.254232 0.839494 -0.480225
vn 0.450192 0.693455 -0.562537
vn -0.426567 0.488757 -0.761024
vn -0.827595 0.559412 -0.046300
vn -0.591859 0.805979 0.010045
vn -0.254232 0.839494 -0.480225
vn -0.827595 0.559412 -0.046300
vn -0.345412 0.650634 0.676288
vn -0.293727 0.800423 0.522539
vn -0.591859 0.805979 0.010045
vn -0.345412 0.650634 0.676288
vn 0.447809 0.613705 0.650257
vn 0.556524 0.541143 0.630433
vn -0.293727 0.800423 0.522539
vn 0.447809 0.613705 0.650257
vn 0.867512 0.496682 -0.027006
vn 0.963277 0.268441 -0.006158
vn 0.556524 0.541143 0.630433
vn 0.867512 0.496682 -0.027006
vn 0.496785 0.468571 -0.730511
vn 0.450192 0.693455 -0.562537
vn 0.963277 0.268441 -0.006158
vn 0.487180 0.544599 -0.682691
vn -0.528315 0.248498 -0.811869
vn -0.426567 0.488757 -0.761024
vn 0.496785 0.468571 -0.730511
vn -0.528315 0.248498 -0.811869
vn -0.976909 0.189089 0.099469
vn -0.827595 0.559412 -0.046300
vn -0.426567 0.488757 -0.761024
vn -0.976909 0.189089 0.099469
vn -0.462884 0.290498 0.837466
vn -0.345412 0.650634 0.676288
vn -0.827595 0.559412 -0.046300
vn -0.462884 0.290498 0.837466
vn 0.483589 0.590775 0.645853
vn 0.447809 0.613705 0.650257
vn -0.345412 0.650634 0.676288
vn 0.483589 0.590775 0.645853
vn 0.766559 0.642065 -0.011858
vn 0.867512 0.496682 -0.027006
vn 0.447809 0.613705 0.650257
vn 0.766559 0.642065 -0.011858
vn 0.487180 0.544599 -0.682691
vn 0.496785 0.468571 -0.730511
vn 0.867512 0.496682 -0.027006
vn 0.559056 0.187711 -0.807602
vn -0.467580 0.162201 -0.868942
vn -0.528315 0.248498 -0.811869
vn 0.487180 0.544599 -0.682691
vn -0.467580 0.162201 -0.868942
vn -0.992382 0.120872 -0.023823
vn -0.976909 0.189089 0.099469
vn -0.528315 0.248498 -0.811869
vn -0.992382 0.120872 -0.023823
vn -0.456157 0.008100 0.889862
vn -0.462884 0.290498 0.837466
vn -0.976909 0.189089 0.099469
vn -0.456157 0.008100 0.889862
vn 0.610878 0.011987 0.791634
vn 0.483589 0.590775 0.645853
vn -0.462884 0.290498 0.837466
vn 0.610878 0.011987 0.791634
vn 0.993460 0.111890 -0.022768
vn 0.766559 0.642065 -0.011858
vn 0.483589 0.590775 0.645853
vn 0.993460 0.111890 -0.022768
vn 0.559056 0.187711 -0.807602
vn 0.487180 0.544599 -0.682691
vn 0.766559 0.642065 -0.011858
vn 0.399296 -0.660407 -0.635945
vn -0.498768 -0.419195 -0.758621
vn -0.467580 0.162201 -0.868942
vn 0.559056 0.187711 -0.807602
vn -0.498768 -0.419195 -0.758621
vn -0.972647 -0.232130 0.008607
vn -0.992382 0.120872 -0.023823
vn -0.467580 0.162201 -0.868942
vn -0.972647 -0.232130 0.008607
vn -0.536308 -0.357905 0.764380
vn -0.456157 0.008100 0.889862
vn -0.992382 0.120872 -0.023823
vn -0.536308 -0.357905 0.764380
vn 0.358703 -0.674073 0.645723
vn 0.610878 0.011987 0.791634
vn -0.456157 0.008100 0.889862
vn 0.358703 -0.674073 0.645723
vn 0.729772 -0.683687 0.002084
vn 0.993460 0.111890 -0.022768
vn 0.610878 0.011987 0.791634
vn 0.729772 -0.683687 0.002084
vn 0.399296 -0.660407 -0.635945
vn 0.559056 0.187711 -0.807602
vn 0.993460 0.111890 -0.022768
vn 0.198102 -0.918942 -0.341030
vn -0.183603 -0.920064 -0.346081
vn -0.498768 -0.419195 -0.758621
vn 0.399296 -0.660407 -0.635945
vn -0.183603 -0.920064 -0.346081
vn -0.385463 -0.922723 -0.001089
vn -0.972647 -0.232130 0.008607
vn -0.498768 -0.419195 -0.758621
vn -0.385463 -0.922723 -0.001089
vn -0.186411 -0.921330 0.341178
vn -0.536308 -0.357905 0.764380
vn -0.972647 -0.232130 0.008607
vn -0.186411 -0.921330 0.341178
vn 0.206087 -0.917274 0.340787
vn 0.358703 -0.674073 0.645723
vn -0.536308 -0.357905 0.764380
vn 0.206087 -0.917274 0.340787
vn 0.408843 -0.912579 0.006840
vn 0.729772 -0.683687 0.002084
vn 0.358703 -0.674073 0.645723
vn 0.408843 -0.912579 0.006840
vn 0.198102 -0.918942 -0.341030
vn 0.399296 -0.660407 -0.635945
vn 0.729772 -0.683687 0.002084
s off
g Rock4
usemtl initialShadingGroup
f 15/1/1 16/2/2 8/3/3 7/4/4
f 16/2/5 17/5/6 9/6/7 8/3/8
f 17/5/9 18/7/10 10/8/11 9/6/12
f 18/7/13 19/9/14 11/10/15 10/8/16
f 19/9/17 20/11/18 12/12/19 11/10/20
f 20/11/21 15/13/22 7/14/23 12/12/24
f 2/15/25 1/16/26 13/17/27
f 3/18/28 2/15/29 13/17/30
f 4/19/31 3/18/32 13/17/33
f 5/20/34 4/19/35 13/17/36
f 6/21/37 5/20/38 13/17/39
f 1/16/40 6/21/41 13/17/42
f 7/22/43 8/23/44 14/24/45
f 8/23/46 9/25/47 14/24/48
f 9/25/49 10/26/50 14/24/51
f 10/26/52 11/27/53 14/24/54
f 11/27/55 12/28/56 14/24/57
f 12/28/58 7/22/59 14/24/60
f 21/29/61 22/30/62 16/2/63 15/1/64
f 22/30/65 23/31/66 17/5/67 16/2/68
f 23/31/69 24/32/70 18/7/71 17/5/72
f 24/32/73 25/33/74 19/9/75 18/7/76
f 25/33/77 26/34/78 20/11/79 19/9/80
f 26/34/81 21/35/82 15/13/83 20/11/84
f 27/36/85 28/37/86 22/30/87 21/29/88
f 28/37/89 29/38/90 23/31/91 22/30/92
f 29/38/93 30/39/94 24/32/95 23/31/96
f 30/39/97 31/40/98 25/33/99 24/32/100
f 31/40/101 32/41/102 26/34/103 25/33/104
f 32/41/105 27/42/106 21/35/107 26/34/108
f 33/43/109 34/44/110 28/37/111 27/36/112
f 34/44/113 35/45/114 29/38/115 28/37/116
f 35/45/117 36/46/118 30/39/119 29/38/120
f 36/46/121 37/47/122 31/40/123 30/39/124
f 37/47/125 38/48/126 32/41/127 31/40/128
f 38/48/129 33/49/130 27/42/131 32/41/132
f 39/50/133 40/51/134 34/44/135 33/43/136
f 40/51/137 41/52/138 35/45/139 34/44/140
f 41/52/141 42/53/142 36/46/143 35/45/144
f 42/53/145 43/54/146 37/47/147 36/46/148
f 43/54/149 44/55/150 38/48/151 37/47/152
f 44/55/153 39/56/154 33/49/155 38/48/156
f 1/57/157 2/58/158 40/51/159 39/50/160
f 2/58/161 3/59/162 41/52/163 40/51/164
f 3/59/165 4/60/166 42/53/167 41/52/168
f 4/60/169 5/61/170 43/54/171 42/53/172
f 5/61/173 6/62/174 44/55/175 43/54/176
f 6/62/177 1/63/178 39/56/179 44/55/180
