%YAML 1.1
%TAG !u! tag:unity3d.com,2011:
--- !u!1 &1852555406227973936
GameObject:
  m_ObjectHideFlags: 0
  m_CorrespondingSourceObject: {fileID: 0}
  m_PrefabInstance: {fileID: 0}
  m_PrefabAsset: {fileID: 0}
  serializedVersion: 6
  m_Component:
  - component: {fileID: 1852555406227973938}
  - component: {fileID: 1852555406227973933}
  m_Layer: 0
  m_Name: BuildManager
  m_TagString: Untagged
  m_Icon: {fileID: 0}
  m_NavMeshLayer: 0
  m_StaticEditorFlags: 0
  m_IsActive: 1
--- !u!4 &1852555406227973938
Transform:
  m_ObjectHideFlags: 0
  m_CorrespondingSourceObject: {fileID: 0}
  m_PrefabInstance: {fileID: 0}
  m_PrefabAsset: {fileID: 0}
  m_GameObject: {fileID: 1852555406227973936}
  m_LocalRotation: {x: 0, y: 0, z: 0, w: 1}
  m_LocalPosition: {x: 0, y: 0, z: 0}
  m_LocalScale: {x: 1, y: 1, z: 1}
  m_Children: []
  m_Father: {fileID: 0}
  m_RootOrder: 0
  m_LocalEulerAnglesHint: {x: 0, y: 0, z: 0}
--- !u!114 &1852555406227973933
MonoBehaviour:
  m_ObjectHideFlags: 0
  m_CorrespondingSourceObject: {fileID: 0}
  m_PrefabInstance: {fileID: 0}
  m_PrefabAsset: {fileID: 0}
  m_GameObject: {fileID: 1852555406227973936}
  m_Enabled: 1
  m_EditorHideFlags: 0
  m_Script: {fileID: 11500000, guid: 027a99e3c95c8cd41b8b4014a2cf815f, type: 3}
  m_Name: 
  m_EditorClassIdentifier: 
  gameManager: {fileID: 0}
  towers:
  - {fileID: 8468392910255168112, guid: 7d15eea82a67e3a49864fd7e51944c82, type: 3}
  - {fileID: 8623774005395362765, guid: b70d9db2c89c59842803dd3f934a6313, type: 3}
  - {fileID: 4093080445302805100, guid: 1a6daec3def86e2468331839748a1811, type: 3}
  - {fileID: 4496476946834179779, guid: bac39833b40709b46a198ed313b3dc48, type: 3}
  LittleDragonPanelName: {fileID: 0}
  GatlingPanelName: {fileID: 0}
  FlamerPanelName: {fileID: 0}
  SniperPanelName: {fileID: 0}
  isActive: 0
  canBuild: 0
  previewDistance: 3.5
  radius: 3
  maxDistance: 4
  towerIndex: 0
